<?xml version="1.0" encoding="utf-8"?>
<!-- Generator: Adobe Illustrator 19.2.1, SVG Export Plug-In . SVG Version: 6.00 Build 0)  -->
<svg version="1.1" id="Layer_1" xmlns="http://www.w3.org/2000/svg" xmlns:xlink="http://www.w3.org/1999/xlink" x="0px" y="0px"
	 viewBox="0 0 28.0606 53.7075" enable-background="new 0 0 28.0606 53.7075" xml:space="preserve">
<g>
	<polygon fill="#002389" points="26.3535,53.7074 0,27.3534 27.3536,0 28.0606,0.707 1.414,27.3534 27.0605,53.0004 	"/>
</g>
</svg>
