<?xml version="1.0" encoding="utf-8"?>
<!-- Generator: Adobe Illustrator 19.2.1, SVG Export Plug-In . SVG Version: 6.00 Build 0)  -->
<svg version="1.1" id="Layer_1" xmlns="http://www.w3.org/2000/svg" xmlns:xlink="http://www.w3.org/1999/xlink" x="0px" y="0px"
	 viewBox="0 0 29.568 29.567" enable-background="new 0 0 29.568 29.567" xml:space="preserve">
<path fill="#002389" d="M104.1097,14.7835c0-8.164-6.619-14.784-14.784-14.784c-8.164,0-14.783,6.62-14.783,14.784
	s6.619,14.783,14.783,14.783C97.4907,29.5665,104.1097,22.9475,104.1097,14.7835 M96.7177,17.4265c0,2.547-2.548,2.547-2.548,2.547
	h-9.689c-2.546,0-2.546-2.547-2.546-2.547v-5.286c0-2.548,2.546-2.548,2.546-2.548h9.689c2.548,0,2.548,2.548,2.548,2.548V17.4265z
	 M87.3557,17.6325l4.84-2.842l-4.84-2.843V17.6325z"/>
<path fill="#002389" d="M29.568,14.783C29.568,6.618,22.95,0,14.784,0C6.619,0,0,6.618,0,14.783s6.619,14.784,14.784,14.784
	C22.95,29.567,29.568,22.948,29.568,14.783 M22.176,15.838v5.129h-3.267v-4.773c0-1.249-0.512-2.102-1.636-2.102
	c-0.859,0-1.338,0.576-1.56,1.131c-0.083,0.198-0.07,0.476-0.07,0.753v4.991h-3.238c0,0,0.043-8.454,0-9.223h3.238v1.448
	c0.191-0.634,1.226-1.537,2.876-1.537C20.567,11.655,22.176,12.983,22.176,15.838 M10.889,8.991c0,0.893-0.674,1.6-1.757,1.6h-0.02
	c-1.044,0-1.72-0.706-1.72-1.598c0-0.911,0.697-1.601,1.761-1.601C10.215,7.392,10.869,8.08,10.889,8.991 M7.765,11.744h2.881v9.222
	H7.765V11.744z"/>
<path fill="#002389" d="M61.2229,15.6133h-1.66v1.66h-1.66v-1.66h-1.66v-1.66h1.66v-1.66h1.66v1.66h1.66V15.6133z M54.3509,14.9163
	c0,3.32-2.224,5.677-5.578,5.677c-3.211,0-5.809-2.598-5.809-5.81s2.598-5.81,5.809-5.81c1.569,0,2.881,0.573,3.893,1.519
	l-1.577,1.519c-0.431-0.415-1.187-0.897-2.316-0.897c-1.983,0-3.602,1.644-3.602,3.669s1.619,3.668,3.602,3.668
	c2.299,0,3.163-1.651,3.296-2.506h-3.296v-1.992h5.487C54.3089,14.2433,54.3509,14.5343,54.3509,14.9163 M66.7859,14.7833
	c0-8.115-6.578-14.692-14.693-14.692c-8.114,0-14.692,6.577-14.692,14.692c0,8.114,6.578,14.692,14.692,14.692
	C60.2079,29.4753,66.7859,22.8973,66.7859,14.7833"/>
<path fill="#002389" d="M-18.7104,9.8759l-1.383,0.001c-1.085,0-1.294,0.515-1.294,1.271v1.668h2.586l-0.337,2.612h-2.249v6.702
	h-2.698v-6.702h-2.255v-2.612h2.255v-1.926c0-2.236,1.366-3.453,3.36-3.453c0.955,0,1.776,0.071,2.015,0.103V9.8759z
	 M-22.5254,0.0909c-8.114,0-14.692,6.578-14.692,14.692c0,8.115,6.578,14.693,14.692,14.693s14.692-6.578,14.692-14.693
	C-7.8334,6.6689-14.4114,0.0909-22.5254,0.0909"/>
</svg>
