<?xml version="1.0" encoding="utf-8"?>
<!-- Generator: Adobe Illustrator 19.2.1, SVG Export Plug-In . SVG Version: 6.00 Build 0)  -->
<svg version="1.1" id="Layer_1" xmlns="http://www.w3.org/2000/svg" xmlns:xlink="http://www.w3.org/1999/xlink" x="0px" y="0px"
	 viewBox="0 0 138 53.1" style="enable-background:new 0 0 138 53.1;" xml:space="preserve">
<style type="text/css">
	.st0{fill:#FFDC00;}
	.st1{filter:url(#Adobe_OpacityMaskFilter);}
	.st2{mask:url(#SVGID_1_);}
	.st3{opacity:0.15;clip-path:url(#SVGID_5_);fill:#1D1D1B;}
	.st4{fill:#1D1D1B;}
	.st5{fill:none;stroke:#FFFFFF;stroke-width:2.283;}
	.st6{fill:#FFEC00;}
	.st7{fill:none;stroke:#FFFFFF;stroke-width:4.268;stroke-linejoin:round;stroke-miterlimit:6.423;}
	.st8{fill:none;stroke:#1D1D1B;stroke-width:1.251;}
	.st9{fill:#009EE2;}
	.st10{fill:none;stroke:#1D1D1B;stroke-width:3.396;stroke-linejoin:round;stroke-miterlimit:6.423;}
	.st11{fill:none;stroke:#009EE2;stroke-width:1.776;stroke-linejoin:round;stroke-miterlimit:6.423;}
	.st12{fill:none;stroke:#1D1D1B;stroke-width:1.184;stroke-miterlimit:6.423;}
	.st13{fill:#FFFFFF;}
	.st14{clip-path:url(#SVGID_7_);fill:#FFEC00;}
</style>
<g>
	
		<rect x="56.3" y="22.4" transform="matrix(0.7071 -0.7071 0.7071 0.7071 -4.6457 59.0849)" class="st0" width="25.4" height="25.4"/>
	<g>
		<path class="st0" d="M3.7,0C3.7,0,0,0,0,3.7v35.4c0,0,0,3.7,3.7,3.7h130.6c0,0,3.7,0,3.7-3.7V3.7c0,0,0-3.7-3.7-3.7H3.7z"/>
		<defs>
			<filter id="Adobe_OpacityMaskFilter" filterUnits="userSpaceOnUse" x="8.6" y="8.8" width="123.4" height="28.8">
				<feColorMatrix  type="matrix" values="1 0 0 0 0  0 1 0 0 0  0 0 1 0 0  0 0 0 1 0"/>
			</filter>
		</defs>
		<mask maskUnits="userSpaceOnUse" x="8.6" y="8.8" width="123.4" height="28.8" id="SVGID_1_">
			<g class="st1">
				<g>
					<defs>
						<rect id="SVGID_2_" x="-9.2" y="-5.2" width="159.4" height="45.6"/>
					</defs>
					<clipPath id="SVGID_3_">
						<use xlink:href="#SVGID_2_"  style="overflow:visible;"/>
					</clipPath>
					<g style="clip-path:url(#SVGID_3_);">
						
							<image style="overflow:visible;" width="332" height="95" xlink:href="719A2784C4FF7BBB.jpg"  transform="matrix(0.48 0 0 0.48 -9.1822 -5.1556)">
						</image>
					</g>
				</g>
			</g>
		</mask>
		<g class="st2">
			<g>
				<defs>
					<rect id="SVGID_4_" x="8.6" y="8.8" width="123.4" height="28.8"/>
				</defs>
				<clipPath id="SVGID_5_">
					<use xlink:href="#SVGID_4_"  style="overflow:visible;"/>
				</clipPath>
				<rect x="8.6" y="8.8" class="st3" width="123.4" height="28.8"/>
			</g>
		</g>
		<path class="st4" d="M124.1,20.1c2.9,0,5.3-2.4,5.3-5.3s-2.4-5.3-5.3-5.3c-2.9,0-5.3,2.4-5.3,5.3S121.1,20.1,124.1,20.1"/>
		<circle class="st5" cx="124.1" cy="14.8" r="5.3"/>
		<path class="st6" d="M117.6,20.8c1.2-2.4,2.5-4.8,3.7-7.2c0.3-0.7,0.3-1.5-0.1-2.1c-0.4-0.6-1.1-1-1.8-1h-5.6
			c-0.5,0-1,0.2-1.3,0.5c-0.4-0.3-0.8-0.5-1.3-0.5h-5.6c-0.7,0-1.4,0.4-1.8,1c-0.4,0.6-0.4,1.4-0.1,2.1c1.3,2.4,2.5,4.8,3.8,7.2
			c-1.3,2.6-2.7,5.2-4,7.8c-0.3,0.7-0.3,1.5,0.1,2.1c0.4,0.6,1.1,1,1.8,1h5.5c0.7,0,1.3-0.3,1.7-0.8c0.4,0.5,1,0.8,1.7,0.8h5.6
			c0.7,0,1.4-0.4,1.8-1c0.4-0.6,0.4-1.4,0.1-2.1C120.3,26,119,23.4,117.6,20.8 M103.5,10.5h-5c-1.2,0-2.1,1-2.1,2.1v17
			c0,1.2,1,2.1,2.1,2.1h5c1.2,0,2.1-1,2.1-2.1v-17C105.7,11.5,104.7,10.5,103.5,10.5 M94.8,25.1h1.5c1.2,0,2.1-1,2.1-2.1v-4.1
			c0-0.3-0.1-0.6-0.2-0.9c0.3-0.4,0.4-0.8,0.4-1.3v-4.1c0-1.2-1-2.1-2.1-2.1h-8.9c-1.2,0-2.1,1-2.1,2.1v17c0,1.2,1,2.1,2.1,2.1h5
			c1.2,0,2.1-1,2.1-2.1V25.1z M78.1,14.8h0.2c1.5,0,2.9,0.8,3.7,2.2c0.7,1.1,1,2.5,1,4.3c0,5.6-3.3,6.3-4.7,6.4
			c-0.6,0-1.1-0.2-1.6-0.6c-0.4-0.4-0.7-1-0.7-1.5v-8.6C75.9,15.7,76.9,14.8,78.1,14.8 M77.7,31.7c3.2,0,5.7-0.9,7.4-2.6
			c2-1.9,2.9-4.6,2.9-8c0-3.5-1.2-6.3-3.5-8.3c-1.8-1.6-4.2-2.4-7.2-2.4H73c-1.2,0-2.1,1-2.1,2.1v17c0,1.2,1,2.1,2.1,2.1H77.7z
			 M65.1,24.3l0.5-2.7l0.4-2.1c0,0,0-0.1,0.1-0.4l0.1-1l0.1-0.6c0-0.2,0.1-0.4,0.1-0.6c-0.1,1.1-1,1.9-2.1,1.9c-1.1,0-2-0.8-2.1-1.9
			l0.2,1.6l0.1,0.8l0.1,0.5c0.1,1.1,0.2,1.7,0.2,1.9c0,0.1,0,0.3,0.1,0.5l0.3,2c-0.1-0.6,0.1-1.2,0.5-1.7c0.4-0.5,1-0.8,1.6-0.8H63
			c0.6,0,1.2,0.3,1.6,0.8C65.1,23,65.2,23.6,65.1,24.3 M67.4,10.5h-6.2c-1,0-1.8,0.7-2.1,1.6l-4.5,17c-0.2,0.6,0,1.3,0.4,1.8
			c0.4,0.5,1,0.8,1.7,0.8h5.2c1,0,1.9-0.7,2.1-1.7c0.2,1,1.1,1.7,2.1,1.7h5.2c0.7,0,1.3-0.3,1.7-0.8s0.6-1.2,0.4-1.8l-4-17
			C69.2,11.2,68.4,10.5,67.4,10.5 M53.1,25.2c-0.9,2.2-2.6,2.4-3.3,2.4c-0.7,0-2.4-0.2-3.3-2.5c-0.4-1-0.7-2.4-0.7-4.1
			c0-1.8,0.2-3.1,0.7-4.1c1-2.2,2.7-2.4,3.4-2.4c1.8,0,3.9,1.2,3.9,6.6C53.8,22.9,53.5,24.2,53.1,25.2 M56.6,13.6
			c-1.7-2-4-3.1-6.8-3.1c-2.3,0-4.3,0.8-6,2.2c-2.2,2-3.3,4.7-3.3,8.2c0,3.6,1.1,6.5,3.2,8.4c1.7,1.6,3.8,2.4,6.2,2.4
			c2.7,0,5-1.1,6.7-3.1c1.6-1.9,2.4-4.5,2.4-7.5C59,18.1,58.2,15.5,56.6,13.6z M33.9,14.1h0.2c2.6,0,4.3,1.6,4.3,4
			c0,1.2-0.4,2.2-1.2,3c-0.8,0.8-1.8,1.3-3,1.3h-0.3c-1.2,0-2.1-1-2.1-2.1v-4C31.8,15,32.8,14.1,33.9,14.1 M41.2,23.3
			c1.4-1.2,2.2-2.9,2.2-5c0-2.6-1-4.7-3-6.2c-1.5-1.1-3.6-1.6-6.4-1.6h-5.2c-1.2,0-2.1,1-2.1,2.1v17c0,1.2,1,2.1,2.1,2.1h5
			c0.5,0,1-0.2,1.4-0.5c0.4,0.3,0.9,0.5,1.4,0.5h5.5c0.7,0,1.4-0.4,1.8-1c0.4-0.6,0.4-1.4,0.1-2.1C43.1,26.8,42.2,25.1,41.2,23.3
			 M19.4,14l0.3,0c0,0,0.3,0,0.3,0C23,14,24,16,24,17.6c0,1.1-0.5,2.1-1.4,2.8c-0.7,0.5-1.6,0.8-2.7,0.8h-0.3c-1.2,0-2.1-1-2.1-2.1
			v-2.9C17.4,15,18.3,14.1,19.4,14 M19.5,20.5h0.4c1.1,0,2.1,0.3,2.9,0.9c0.9,0.7,1.4,1.7,1.4,2.9c0,1.2-0.5,2.2-1.3,2.9
			c-0.8,0.6-1.7,0.9-2.9,0.9c0,0-0.3,0-0.3,0l-0.3,0c-1.1-0.1-2-1-2-2.1v-3.3C17.4,21.5,18.4,20.5,19.5,20.5 M21.6,31.7
			c2.2,0,4-0.6,5.5-1.9c1.5-1.3,2.3-3.1,2.3-5.1c0-1.6-0.4-2.9-1.3-3.9c0.6-0.9,1-2,1-3.4c0-2.1-0.8-3.8-2.4-5.1
			c-1.5-1.2-3.5-1.8-6.2-1.8h-5.9c-1.2,0-2.1,1-2.1,2.1v17c0,1.2,1,2.1,2.1,2.1H21.6z"/>
		<path class="st7" d="M117.6,20.8c1.2-2.4,2.5-4.8,3.7-7.2c0.3-0.7,0.3-1.5-0.1-2.1c-0.4-0.6-1.1-1-1.8-1h-5.6
			c-0.5,0-1,0.2-1.3,0.5c-0.4-0.3-0.8-0.5-1.3-0.5h-5.6c-0.7,0-1.4,0.4-1.8,1c-0.4,0.6-0.4,1.4-0.1,2.1c1.3,2.4,2.5,4.8,3.8,7.2
			c-1.3,2.6-2.7,5.2-4,7.8c-0.3,0.7-0.3,1.5,0.1,2.1c0.4,0.6,1.1,1,1.8,1h5.5c0.7,0,1.3-0.3,1.7-0.8c0.4,0.5,1,0.8,1.7,0.8h5.6
			c0.7,0,1.4-0.4,1.8-1c0.4-0.6,0.4-1.4,0.1-2.1C120.3,26,119,23.4,117.6,20.8z M103.5,10.5h-5c-1.2,0-2.1,1-2.1,2.1v17
			c0,1.2,1,2.1,2.1,2.1h5c1.2,0,2.1-1,2.1-2.1v-17C105.7,11.5,104.7,10.5,103.5,10.5z M94.8,25.1h1.5c1.2,0,2.1-1,2.1-2.1v-4.1
			c0-0.3-0.1-0.6-0.2-0.9c0.3-0.4,0.4-0.8,0.4-1.3v-4.1c0-1.2-1-2.1-2.1-2.1h-8.9c-1.2,0-2.1,1-2.1,2.1v17c0,1.2,1,2.1,2.1,2.1h5
			c1.2,0,2.1-1,2.1-2.1V25.1z M78.1,14.8h0.2c1.5,0,2.9,0.8,3.7,2.2c0.7,1.1,1,2.5,1,4.3c0,5.6-3.3,6.3-4.7,6.4
			c-0.6,0-1.1-0.2-1.6-0.6c-0.4-0.4-0.7-1-0.7-1.5v-8.6C75.9,15.7,76.9,14.8,78.1,14.8z M77.7,31.7c3.2,0,5.7-0.9,7.4-2.6
			c2-1.9,2.9-4.6,2.9-8c0-3.5-1.2-6.3-3.5-8.3c-1.8-1.6-4.2-2.4-7.2-2.4H73c-1.2,0-2.1,1-2.1,2.1v17c0,1.2,1,2.1,2.1,2.1H77.7z
			 M65.1,24.3l0.5-2.7l0.4-2.1c0,0,0-0.1,0.1-0.4l0.1-1l0.1-0.6c0-0.2,0.1-0.4,0.1-0.6c-0.1,1.1-1,1.9-2.1,1.9c-1.1,0-2-0.8-2.1-1.9
			l0.2,1.6l0.1,0.8l0.1,0.5c0.1,1.1,0.2,1.7,0.2,1.9c0,0.1,0,0.3,0.1,0.5l0.3,2c-0.1-0.6,0.1-1.2,0.5-1.7c0.4-0.5,1-0.8,1.6-0.8H63
			c0.6,0,1.2,0.3,1.6,0.8C65.1,23,65.2,23.6,65.1,24.3z M67.4,10.5h-6.2c-1,0-1.8,0.7-2.1,1.6l-4.5,17c-0.2,0.6,0,1.3,0.4,1.8
			c0.4,0.5,1,0.8,1.7,0.8h5.2c1,0,1.9-0.7,2.1-1.7c0.2,1,1.1,1.7,2.1,1.7h5.2c0.7,0,1.3-0.3,1.7-0.8s0.6-1.2,0.4-1.8l-4-17
			C69.2,11.2,68.4,10.5,67.4,10.5z M53.1,25.2c-0.9,2.2-2.6,2.4-3.3,2.4c-0.7,0-2.4-0.2-3.3-2.5c-0.4-1-0.7-2.4-0.7-4.1
			c0-1.8,0.2-3.1,0.7-4.1c1-2.2,2.7-2.4,3.4-2.4c1.8,0,3.9,1.2,3.9,6.6C53.8,22.9,53.5,24.2,53.1,25.2z M56.6,13.6
			c-1.7-2-4-3.1-6.8-3.1c-2.3,0-4.3,0.8-6,2.2c-2.2,2-3.3,4.7-3.3,8.2c0,3.6,1.1,6.5,3.2,8.4c1.7,1.6,3.8,2.4,6.2,2.4
			c2.7,0,5-1.1,6.7-3.1c1.6-1.9,2.4-4.5,2.4-7.5C59,18.1,58.2,15.5,56.6,13.6z M33.9,14.1h0.2c2.6,0,4.3,1.6,4.3,4
			c0,1.2-0.4,2.2-1.2,3c-0.8,0.8-1.8,1.3-3,1.3h-0.3c-1.2,0-2.1-1-2.1-2.1v-4C31.8,15,32.8,14.1,33.9,14.1z M41.2,23.3
			c1.4-1.2,2.2-2.9,2.2-5c0-2.6-1-4.7-3-6.2c-1.5-1.1-3.6-1.6-6.4-1.6h-5.2c-1.2,0-2.1,1-2.1,2.1v17c0,1.2,1,2.1,2.1,2.1h5
			c0.5,0,1-0.2,1.4-0.5c0.4,0.3,0.9,0.5,1.4,0.5h5.5c0.7,0,1.4-0.4,1.8-1c0.4-0.6,0.4-1.4,0.1-2.1C43.1,26.8,42.2,25.1,41.2,23.3z
			 M19.4,14l0.3,0c0,0,0.3,0,0.3,0C23,14,24,16,24,17.6c0,1.1-0.5,2.1-1.4,2.8c-0.7,0.5-1.6,0.8-2.7,0.8h-0.3c-1.2,0-2.1-1-2.1-2.1
			v-2.9C17.4,15,18.3,14.1,19.4,14z M19.5,20.5h0.4c1.1,0,2.1,0.3,2.9,0.9c0.9,0.7,1.4,1.7,1.4,2.9c0,1.2-0.5,2.2-1.3,2.9
			c-0.8,0.6-1.7,0.9-2.9,0.9c0,0-0.3,0-0.3,0l-0.3,0c-1.1-0.1-2-1-2-2.1v-3.3C17.4,21.5,18.4,20.5,19.5,20.5z M21.6,31.7
			c2.2,0,4-0.6,5.5-1.9c1.5-1.3,2.3-3.1,2.3-5.1c0-1.6-0.4-2.9-1.3-3.9c0.6-0.9,1-2,1-3.4c0-2.1-0.8-3.8-2.4-5.1
			c-1.5-1.2-3.5-1.8-6.2-1.8h-5.9c-1.2,0-2.1,1-2.1,2.1v17c0,1.2,1,2.1,2.1,2.1H21.6z"/>
		<path class="st4" d="M124.1,19.6c2.7,0,4.8-2.2,4.8-4.8c0-2.7-2.2-4.8-4.8-4.8c-2.7,0-4.8,2.2-4.8,4.8
			C119.2,17.5,121.4,19.6,124.1,19.6"/>
		<circle class="st8" cx="124.1" cy="14.8" r="4.8"/>
		<path class="st9" d="M50.2,26.3c1.5,0,2.7-2.5,2.7-5.6c0-3.1-1.2-5.6-2.7-5.6c-1.5,0-2.7,2.5-2.7,5.6
			C47.4,23.8,48.6,26.3,50.2,26.3"/>
	</g>
	<polygon class="st9" points="43.9,17.6 36,23 40.7,27.7 46.2,22.6 	"/>
	<g>
		<path class="st6" d="M117.1,20.8c1.3-2.5,2.6-4.9,3.8-7.4c0.3-0.5,0.3-1.2-0.1-1.7c-0.3-0.5-0.9-0.8-1.5-0.8h-5.6
			c-0.5,0-1,0.2-1.3,0.6c-0.3-0.4-0.8-0.6-1.3-0.6h-5.6c-0.6,0-1.1,0.3-1.5,0.8c-0.3,0.5-0.3,1.1-0.1,1.7c1.3,2.5,2.6,4.9,3.9,7.4
			c-1.4,2.7-2.8,5.3-4.1,8c-0.3,0.5-0.2,1.2,0.1,1.7c0.3,0.5,0.9,0.8,1.5,0.8h5.5c0.7,0,1.3-0.4,1.6-1c0-0.1,0.1-0.2,0.1-0.3
			l0.1,0.3c0.3,0.7,0.9,1.1,1.6,1.1h5.6c0.6,0,1.1-0.3,1.5-0.8s0.3-1.1,0.1-1.7C119.9,26.1,118.5,23.5,117.1,20.8 M103.5,10.9h-5
			c-0.9,0-1.7,0.8-1.7,1.7v17c0,0.9,0.8,1.7,1.7,1.7h5c0.9,0,1.7-0.8,1.7-1.7v-17C105.2,11.7,104.5,10.9,103.5,10.9 M94.4,24.6h1.9
			c0.9,0,1.7-0.8,1.7-1.7v-4.1c0-0.3-0.1-0.7-0.3-0.9c0.3-0.3,0.5-0.8,0.5-1.2v-4.1c0-0.9-0.8-1.7-1.7-1.7h-8.9
			c-0.9,0-1.7,0.8-1.7,1.7v17c0,0.9,0.8,1.7,1.7,1.7h5c0.9,0,1.7-0.8,1.7-1.7V24.6z M78.1,15.2h0.2c1.4,0,2.6,0.7,3.3,2
			c0.6,1.1,0.9,2.4,0.9,4.1c0,5.2-3,5.9-4.3,5.9c-0.5,0-0.9-0.1-1.2-0.5c-0.3-0.3-0.5-0.8-0.5-1.2v-8.6C76.4,16,77.1,15.2,78.1,15.2
			 M77.7,31.3c3.1,0,5.4-0.8,7.1-2.4c1.9-1.9,2.8-4.5,2.8-7.7c0-3.4-1.1-6-3.3-8c-1.7-1.5-4-2.2-6.9-2.2H73c-0.9,0-1.7,0.8-1.7,1.7
			v17c0,0.9,0.8,1.7,1.7,1.7H77.7z M65.1,22.2l0.1-0.6l0.4-2.1c0,0,0-0.1,0.1-0.4l0.1-1l0.1-0.6l0.1-0.6c-0.1,0.9-0.8,1.5-1.7,1.5
			c-0.9,0-1.6-0.7-1.7-1.5l0.2,1.6l0.1,0.8l0.1,0.5c0.1,1.1,0.2,1.7,0.2,1.9c0,0.1,0,0.3,0.1,0.4c0.1,0.6,0.2,1.3,0.3,1.9
			c-0.1-0.5,0.1-1,0.4-1.4C64.2,22.4,64.6,22.2,65.1,22.2L65.1,22.2z M67.4,10.9h-6.2c-0.8,0-1.4,0.5-1.6,1.3l-4.5,17
			c-0.1,0.5,0,1.1,0.3,1.5c0.3,0.4,0.8,0.7,1.3,0.7h5.2c0.8,0,1.5-0.6,1.7-1.4c0-0.3,0.1-0.5,0.1-0.8h0.6c0,0.2,0.1,0.5,0.1,0.7
			c0.1,0.8,0.8,1.4,1.7,1.4h5.2c0.5,0,1-0.2,1.3-0.6c0.3-0.4,0.4-0.9,0.3-1.4l-4-17C68.8,11.5,68.2,10.9,67.4,10.9 M52.7,25.1
			c-0.8,1.9-2.2,2.2-2.9,2.2c-0.7,0-2.1-0.3-2.9-2.2c-0.4-1-0.6-2.3-0.6-3.9c0-1.7,0.2-3,0.7-4c0.8-1.9,2.2-2.2,3-2.2
			c2.3,0,3.5,2.1,3.5,6.2C53.3,22.8,53.1,24.1,52.7,25.1 M56.3,13.9c-1.6-1.9-3.8-2.9-6.4-2.9c-2.2,0-4.1,0.7-5.7,2.1
			C42,14.9,41,17.6,41,21c0,3.5,1,6.2,3,8.1c1.6,1.5,3.6,2.2,5.9,2.2c2.6,0,4.7-1,6.3-2.9c1.5-1.9,2.3-4.3,2.3-7.2
			C58.6,18.2,57.8,15.7,56.3,13.9L56.3,13.9z M33.9,14.5h0.2c2.9,0,3.9,1.9,3.9,3.6c0,1.1-0.4,2-1.1,2.7c-0.7,0.7-1.6,1.1-2.7,1.1
			h-0.3c-0.9,0-1.7-0.8-1.7-1.7v-4C32.2,15.3,33,14.5,33.9,14.5 M40.7,23.2c1.5-1.1,2.3-2.8,2.3-4.9c0-2.5-1-4.5-2.9-5.8
			c-1.4-1-3.4-1.5-6.1-1.5h-5.2c-0.9,0-1.7,0.8-1.7,1.7v17c0,0.9,0.8,1.7,1.7,1.7h5c0.6,0,1.1-0.3,1.4-0.7c0.3,0.5,0.8,0.7,1.4,0.7
			h5.5c0.6,0,1.1-0.3,1.5-0.8c0.3-0.5,0.3-1.1,0-1.7C42.7,26.9,41.7,25.1,40.7,23.2 M19.4,14.5l0.3,0c0,0,0.3,0,0.3,0
			c2.6,0,3.5,1.7,3.5,3.2c0,1-0.4,1.9-1.2,2.4c-0.6,0.5-1.5,0.7-2.4,0.7h-0.3c-0.9,0-1.7-0.8-1.7-1.7v-2.9
			C17.8,15.3,18.5,14.5,19.4,14.5 M19.5,21h0.4c1,0,1.9,0.3,2.6,0.8c0.8,0.6,1.2,1.5,1.2,2.6c0,1-0.4,1.9-1.2,2.6
			c-0.7,0.6-1.6,0.9-2.6,0.9c0,0-0.2,0-0.3,0l-0.3,0c-0.9-0.1-1.6-0.8-1.6-1.7v-3.3C17.8,21.7,18.6,21,19.5,21 M21.6,31.3
			c2.1,0,3.8-0.6,5.2-1.8c1.4-1.2,2.1-2.9,2.1-4.8c0-1.6-0.5-2.9-1.4-3.9c0,0,0,0,0,0c0.7-0.9,1.1-2,1.1-3.4c0-1.9-0.8-3.6-2.2-4.8
			c-1.4-1.2-3.3-1.7-6-1.7h-5.9c-0.9,0-1.7,0.8-1.7,1.7v17c0,0.9,0.8,1.7,1.7,1.7H21.6z"/>
		<path class="st10" d="M117.1,20.8c1.3-2.5,2.6-4.9,3.8-7.4c0.3-0.5,0.3-1.2-0.1-1.7c-0.3-0.5-0.9-0.8-1.5-0.8h-5.6
			c-0.5,0-1,0.2-1.3,0.6c-0.3-0.4-0.8-0.6-1.3-0.6h-5.6c-0.6,0-1.1,0.3-1.5,0.8c-0.3,0.5-0.3,1.1-0.1,1.7c1.3,2.5,2.6,4.9,3.9,7.4
			c-1.4,2.7-2.8,5.3-4.1,8c-0.3,0.5-0.2,1.2,0.1,1.7c0.3,0.5,0.9,0.8,1.5,0.8h5.5c0.7,0,1.3-0.4,1.6-1c0-0.1,0.1-0.2,0.1-0.3
			l0.1,0.3c0.3,0.7,0.9,1.1,1.6,1.1h5.6c0.6,0,1.1-0.3,1.5-0.8s0.3-1.1,0.1-1.7C119.9,26.1,118.5,23.5,117.1,20.8z M103.5,10.9h-5
			c-0.9,0-1.7,0.8-1.7,1.7v17c0,0.9,0.8,1.7,1.7,1.7h5c0.9,0,1.7-0.8,1.7-1.7v-17C105.2,11.7,104.5,10.9,103.5,10.9z M94.4,24.6h1.9
			c0.9,0,1.7-0.8,1.7-1.7v-4.1c0-0.3-0.1-0.7-0.3-0.9c0.3-0.3,0.5-0.8,0.5-1.2v-4.1c0-0.9-0.8-1.7-1.7-1.7h-8.9
			c-0.9,0-1.7,0.8-1.7,1.7v17c0,0.9,0.8,1.7,1.7,1.7h5c0.9,0,1.7-0.8,1.7-1.7V24.6z M78.1,15.2h0.2c1.4,0,2.6,0.7,3.3,2
			c0.6,1.1,0.9,2.4,0.9,4.1c0,5.2-3,5.9-4.3,5.9c-0.5,0-0.9-0.1-1.2-0.5c-0.3-0.3-0.5-0.8-0.5-1.2v-8.6C76.4,16,77.1,15.2,78.1,15.2
			z M77.7,31.3c3.1,0,5.4-0.8,7.1-2.4c1.9-1.9,2.8-4.5,2.8-7.7c0-3.4-1.1-6-3.3-8c-1.7-1.5-4-2.2-6.9-2.2H73c-0.9,0-1.7,0.8-1.7,1.7
			v17c0,0.9,0.8,1.7,1.7,1.7H77.7z M65.1,22.2l0.1-0.6l0.4-2.1c0,0,0-0.1,0.1-0.4l0.1-1l0.1-0.6l0.1-0.6c-0.1,0.9-0.8,1.5-1.7,1.5
			c-0.9,0-1.6-0.7-1.7-1.5l0.2,1.6l0.1,0.8l0.1,0.5c0.1,1.1,0.2,1.7,0.2,1.9c0,0.1,0,0.3,0.1,0.4c0.1,0.6,0.2,1.3,0.3,1.9
			c-0.1-0.5,0.1-1,0.4-1.4C64.2,22.4,64.6,22.2,65.1,22.2L65.1,22.2z M67.4,10.9h-6.2c-0.8,0-1.4,0.5-1.6,1.3l-4.5,17
			c-0.1,0.5,0,1.1,0.3,1.5c0.3,0.4,0.8,0.7,1.3,0.7h5.2c0.8,0,1.5-0.6,1.7-1.4c0-0.3,0.1-0.5,0.1-0.8h0.6c0,0.2,0.1,0.5,0.1,0.7
			c0.1,0.8,0.8,1.4,1.7,1.4h5.2c0.5,0,1-0.2,1.3-0.6c0.3-0.4,0.4-0.9,0.3-1.4l-4-17C68.8,11.5,68.2,10.9,67.4,10.9z M52.7,25.1
			c-0.8,1.9-2.2,2.2-2.9,2.2c-0.7,0-2.1-0.3-2.9-2.2c-0.4-1-0.6-2.3-0.6-3.9c0-1.7,0.2-3,0.7-4c0.8-1.9,2.2-2.2,3-2.2
			c2.3,0,3.5,2.1,3.5,6.2C53.3,22.8,53.1,24.1,52.7,25.1z M56.3,13.9c-1.6-1.9-3.8-2.9-6.4-2.9c-2.2,0-4.1,0.7-5.7,2.1
			C42,14.9,41,17.6,41,21c0,3.5,1,6.2,3,8.1c1.6,1.5,3.6,2.2,5.9,2.2c2.6,0,4.7-1,6.3-2.9c1.5-1.9,2.3-4.3,2.3-7.2
			C58.6,18.2,57.8,15.7,56.3,13.9L56.3,13.9z M33.9,14.5h0.2c2.9,0,3.9,1.9,3.9,3.6c0,1.1-0.4,2-1.1,2.7c-0.7,0.7-1.6,1.1-2.7,1.1
			h-0.3c-0.9,0-1.7-0.8-1.7-1.7v-4C32.2,15.3,33,14.5,33.9,14.5z M40.7,23.2c1.5-1.1,2.3-2.8,2.3-4.9c0-2.5-1-4.5-2.9-5.8
			c-1.4-1-3.4-1.5-6.1-1.5h-5.2c-0.9,0-1.7,0.8-1.7,1.7v17c0,0.9,0.8,1.7,1.7,1.7h5c0.6,0,1.1-0.3,1.4-0.7c0.3,0.5,0.8,0.7,1.4,0.7
			h5.5c0.6,0,1.1-0.3,1.5-0.8c0.3-0.5,0.3-1.1,0-1.7C42.7,26.9,41.7,25.1,40.7,23.2z M19.4,14.5l0.3,0c0,0,0.3,0,0.3,0
			c2.6,0,3.5,1.7,3.5,3.2c0,1-0.4,1.9-1.2,2.4c-0.6,0.5-1.5,0.7-2.4,0.7h-0.3c-0.9,0-1.7-0.8-1.7-1.7v-2.9
			C17.8,15.3,18.5,14.5,19.4,14.5z M19.5,21h0.4c1,0,1.9,0.3,2.6,0.8c0.8,0.6,1.2,1.5,1.2,2.6c0,1-0.4,1.9-1.2,2.6
			c-0.7,0.6-1.6,0.9-2.6,0.9c0,0-0.2,0-0.3,0l-0.3,0c-0.9-0.1-1.6-0.8-1.6-1.7v-3.3C17.8,21.7,18.6,21,19.5,21z M21.6,31.3
			c2.1,0,3.8-0.6,5.2-1.8c1.4-1.2,2.1-2.9,2.1-4.8c0-1.6-0.5-2.9-1.4-3.9c0,0,0,0,0,0c0.7-0.9,1.1-2,1.1-3.4c0-1.9-0.8-3.6-2.2-4.8
			c-1.4-1.2-3.3-1.7-6-1.7h-5.9c-0.9,0-1.7,0.8-1.7,1.7v17c0,0.9,0.8,1.7,1.7,1.7H21.6z"/>
		<path class="st6" d="M116.2,20.7c1.3-2.6,2.7-5.2,4-7.8c0.1-0.3,0.1-0.6,0-0.9c-0.2-0.3-0.4-0.4-0.8-0.4h-5.6
			c-0.4,0-0.7,0.2-0.8,0.6c-0.2,0.5-0.3,0.9-0.5,1.4c-0.2-0.5-0.3-0.9-0.5-1.4c-0.1-0.4-0.5-0.6-0.8-0.6h-5.6
			c-0.3,0-0.6,0.2-0.8,0.4c-0.2,0.3-0.2,0.6,0,0.9c1.4,2.6,2.7,5.2,4.1,7.8c-1.4,2.8-2.9,5.6-4.3,8.4c-0.1,0.3-0.1,0.6,0,0.9
			c0.2,0.3,0.4,0.4,0.8,0.4h5.5c0.4,0,0.7-0.2,0.8-0.5c0.3-0.7,0.6-1.4,0.9-2.2c0.3,0.7,0.6,1.4,0.8,2.2c0.1,0.3,0.5,0.6,0.8,0.6
			h5.6c0.3,0,0.6-0.2,0.8-0.4c0.2-0.3,0.2-0.6,0-0.9C119.1,26.3,117.7,23.5,116.2,20.7 M103.5,11.6h-5c-0.5,0-0.9,0.4-0.9,0.9v17
			c0,0.5,0.4,0.9,0.9,0.9h5c0.5,0,0.9-0.4,0.9-0.9v-17C104.4,12,104,11.6,103.5,11.6 M93.6,23.7h2.7c0.5,0,0.9-0.4,0.9-0.9v-4.1
			c0-0.5-0.4-0.9-0.9-0.9h-2.7v-0.4h3c0.5,0,0.9-0.4,0.9-0.9v-4.1c0-0.5-0.4-0.9-0.9-0.9h-8.9c-0.5,0-0.9,0.4-0.9,0.9v17
			c0,0.5,0.4,0.9,0.9,0.9h5c0.5,0,0.9-0.4,0.9-0.9V23.7z M78.1,15.9h0.2c0.8,0,1.8,0.3,2.6,1.6c0.5,0.9,0.8,2.1,0.8,3.7
			c0,4.1-1.9,5.1-3.6,5.1c-0.2,0-0.5-0.1-0.7-0.2c-0.2-0.2-0.3-0.4-0.3-0.6v-8.6C77.2,16.3,77.6,15.9,78.1,15.9 M77.7,30.4
			c2.8,0,5-0.7,6.5-2.2c1.7-1.7,2.6-4.1,2.6-7.1c0-3.1-1-5.6-3-7.3c-1.5-1.4-3.7-2-6.4-2H73c-0.5,0-0.9,0.4-0.9,0.9v17
			c0,0.5,0.4,0.9,0.9,0.9H77.7z M64.1,22.9c0.1-0.5,0.2-1.1,0.3-1.6l0.4-2.1c0,0,0-0.1,0.1-0.3l0.1-1l0.1-0.6l0.1-0.6
			c0,0.5-0.4,0.8-0.9,0.8c-0.5,0-0.8-0.3-0.9-0.8l0.2,1.6l0.1,0.8l0.1,0.5c0.2,1.1,0.2,1.7,0.2,1.9c0,0.1,0,0.3,0.1,0.4
			C64,22.3,64,22.6,64.1,22.9L64.1,22.9z M67.4,11.6h-6.2c-0.4,0-0.8,0.3-0.9,0.7l-4.5,17c-0.1,0.3,0,0.6,0.2,0.8
			c0.2,0.2,0.4,0.3,0.7,0.3h5.2c0.4,0,0.8-0.3,0.9-0.7c0.1-0.5,0.2-1,0.3-1.4H65c0.1,0.5,0.2,0.9,0.2,1.4c0.1,0.4,0.4,0.7,0.9,0.7
			h5.2c0.3,0,0.5-0.1,0.7-0.3c0.2-0.2,0.2-0.5,0.2-0.8l-4-17C68.1,11.9,67.8,11.6,67.4,11.6 M51.9,24.6c-0.6,1.4-1.5,1.7-2.2,1.7
			c-0.7,0-1.6-0.3-2.2-1.7C47.2,23.7,47,22.5,47,21c0-1.6,0.2-2.8,0.6-3.6c0.6-1.4,1.6-1.7,2.2-1.7c2.7,0,2.7,4.1,2.7,5.4
			C52.5,22.6,52.3,23.8,51.9,24.6 M55.6,14.3c-1.4-1.7-3.4-2.6-5.8-2.6c-2,0-3.7,0.7-5.1,1.9c-1.9,1.7-2.9,4.2-2.9,7.3
			c0,3.3,0.9,5.8,2.8,7.5c1.5,1.3,3.3,2,5.3,2c2.3,0,4.3-0.9,5.7-2.7c1.4-1.7,2.1-4,2.1-6.7C57.8,18.3,57,16,55.6,14.3z M33.9,15.2
			h0.2c2,0,3.1,1,3.1,2.8c0,0.9-0.3,1.6-0.8,2.2c-0.5,0.6-1.3,0.9-2.1,0.9h-0.3c-0.5,0-0.9-0.4-0.9-0.9v-4
			C33.1,15.6,33.5,15.2,33.9,15.2 M39.6,22.8c1.7-1,2.6-2.6,2.6-4.6c0-2.2-0.8-3.9-2.5-5.2c-1.3-0.9-3.1-1.4-5.6-1.4h-5.2
			c-0.5,0-0.9,0.4-0.9,0.9v17c0,0.5,0.4,0.9,0.9,0.9h5c0.5,0,0.9-0.4,0.9-0.9v-2.3c0.4,0.9,0.7,1.8,1.1,2.7c0.1,0.3,0.5,0.5,0.8,0.5
			h5.5c0.3,0,0.6-0.2,0.8-0.4c0.2-0.3,0.2-0.6,0-0.9C41.8,27,40.7,24.9,39.6,22.8 M19.5,15.2l0.3,0c0,0,0.2,0,0.3,0
			c1.7,0,2.7,0.9,2.7,2.4c0,0.7-0.3,1.4-0.9,1.8c-0.5,0.4-1.2,0.6-2,0.6h-0.3c-0.5,0-0.9-0.4-0.9-0.9v-2.9
			C18.7,15.6,19,15.2,19.5,15.2 M19.5,21.7h0.4c0.9,0,1.6,0.2,2.1,0.6c0.6,0.5,0.9,1.1,0.9,1.9c0,0.8-0.3,1.5-0.9,1.9
			c-0.5,0.4-1.2,0.7-2.1,0.7l-0.5,0c-0.5,0-0.8-0.4-0.8-0.9v-3.3C18.7,22.1,19.1,21.7,19.5,21.7 M21.6,30.4c1.9,0,3.5-0.5,4.7-1.6
			c1.2-1.1,1.9-2.5,1.9-4.2c0-1.4-0.4-2.5-1.2-3.3c-0.2-0.2-0.5-0.4-0.7-0.6c1-0.7,1.6-1.9,1.6-3.4c0-1.7-0.6-3.1-1.9-4.2
			c-1.2-1-3-1.5-5.4-1.5h-5.9c-0.5,0-0.9,0.4-0.9,0.9v17c0,0.5,0.4,0.9,0.9,0.9H21.6z"/>
		<path class="st11" d="M116.2,20.7c1.3-2.6,2.7-5.2,4-7.8c0.1-0.3,0.1-0.6,0-0.9c-0.2-0.3-0.4-0.4-0.8-0.4h-5.6
			c-0.4,0-0.7,0.2-0.8,0.6c-0.2,0.5-0.3,0.9-0.5,1.4c-0.2-0.5-0.3-0.9-0.5-1.4c-0.1-0.4-0.5-0.6-0.8-0.6h-5.6
			c-0.3,0-0.6,0.2-0.8,0.4c-0.2,0.3-0.2,0.6,0,0.9c1.4,2.6,2.7,5.2,4.1,7.8c-1.4,2.8-2.9,5.6-4.3,8.4c-0.1,0.3-0.1,0.6,0,0.9
			c0.2,0.3,0.4,0.4,0.8,0.4h5.5c0.4,0,0.7-0.2,0.8-0.5c0.3-0.7,0.6-1.4,0.9-2.2c0.3,0.7,0.6,1.4,0.8,2.2c0.1,0.3,0.5,0.6,0.8,0.6
			h5.6c0.3,0,0.6-0.2,0.8-0.4c0.2-0.3,0.2-0.6,0-0.9C119.1,26.3,117.7,23.5,116.2,20.7z M103.5,11.6h-5c-0.5,0-0.9,0.4-0.9,0.9v17
			c0,0.5,0.4,0.9,0.9,0.9h5c0.5,0,0.9-0.4,0.9-0.9v-17C104.4,12,104,11.6,103.5,11.6z M93.6,23.7h2.7c0.5,0,0.9-0.4,0.9-0.9v-4.1
			c0-0.5-0.4-0.9-0.9-0.9h-2.7v-0.4h3c0.5,0,0.9-0.4,0.9-0.9v-4.1c0-0.5-0.4-0.9-0.9-0.9h-8.9c-0.5,0-0.9,0.4-0.9,0.9v17
			c0,0.5,0.4,0.9,0.9,0.9h5c0.5,0,0.9-0.4,0.9-0.9V23.7z M78.1,15.9h0.2c0.8,0,1.8,0.3,2.6,1.6c0.5,0.9,0.8,2.1,0.8,3.7
			c0,4.1-1.9,5.1-3.6,5.1c-0.2,0-0.5-0.1-0.7-0.2c-0.2-0.2-0.3-0.4-0.3-0.6v-8.6C77.2,16.3,77.6,15.9,78.1,15.9z M77.7,30.4
			c2.8,0,5-0.7,6.5-2.2c1.7-1.7,2.6-4.1,2.6-7.1c0-3.1-1-5.6-3-7.3c-1.5-1.4-3.7-2-6.4-2H73c-0.5,0-0.9,0.4-0.9,0.9v17
			c0,0.5,0.4,0.9,0.9,0.9H77.7z M64.1,22.9c0.1-0.5,0.2-1.1,0.3-1.6l0.4-2.1c0,0,0-0.1,0.1-0.3l0.1-1l0.1-0.6l0.1-0.6
			c0,0.5-0.4,0.8-0.9,0.8c-0.5,0-0.8-0.3-0.9-0.8l0.2,1.6l0.1,0.8l0.1,0.5c0.2,1.1,0.2,1.7,0.2,1.9c0,0.1,0,0.3,0.1,0.4
			C64,22.3,64,22.6,64.1,22.9L64.1,22.9z M67.4,11.6h-6.2c-0.4,0-0.8,0.3-0.9,0.7l-4.5,17c-0.1,0.3,0,0.6,0.2,0.8
			c0.2,0.2,0.4,0.3,0.7,0.3h5.2c0.4,0,0.8-0.3,0.9-0.7c0.1-0.5,0.2-1,0.3-1.4H65c0.1,0.5,0.2,0.9,0.2,1.4c0.1,0.4,0.4,0.7,0.9,0.7
			h5.2c0.3,0,0.5-0.1,0.7-0.3c0.2-0.2,0.2-0.5,0.2-0.8l-4-17C68.1,11.9,67.8,11.6,67.4,11.6z M51.9,24.6c-0.6,1.4-1.5,1.7-2.2,1.7
			c-0.7,0-1.6-0.3-2.2-1.7C47.2,23.7,47,22.5,47,21c0-1.6,0.2-2.8,0.6-3.6c0.6-1.4,1.6-1.7,2.2-1.7c2.7,0,2.7,4.1,2.7,5.4
			C52.5,22.6,52.3,23.8,51.9,24.6z M55.6,14.3c-1.4-1.7-3.4-2.6-5.8-2.6c-2,0-3.7,0.7-5.1,1.9c-1.9,1.7-2.9,4.2-2.9,7.3
			c0,3.3,0.9,5.8,2.8,7.5c1.5,1.3,3.3,2,5.3,2c2.3,0,4.3-0.9,5.7-2.7c1.4-1.7,2.1-4,2.1-6.7C57.8,18.3,57,16,55.6,14.3z M33.9,15.2
			h0.2c2,0,3.1,1,3.1,2.8c0,0.9-0.3,1.6-0.8,2.2c-0.5,0.6-1.3,0.9-2.1,0.9h-0.3c-0.5,0-0.9-0.4-0.9-0.9v-4
			C33.1,15.6,33.5,15.2,33.9,15.2z M39.6,22.8c1.7-1,2.6-2.6,2.6-4.6c0-2.2-0.8-3.9-2.5-5.2c-1.3-0.9-3.1-1.4-5.6-1.4h-5.2
			c-0.5,0-0.9,0.4-0.9,0.9v17c0,0.5,0.4,0.9,0.9,0.9h5c0.5,0,0.9-0.4,0.9-0.9v-2.3c0.4,0.9,0.7,1.8,1.1,2.7c0.1,0.3,0.5,0.5,0.8,0.5
			h5.5c0.3,0,0.6-0.2,0.8-0.4c0.2-0.3,0.2-0.6,0-0.9C41.8,27,40.7,24.9,39.6,22.8z M19.5,15.2l0.3,0c0,0,0.2,0,0.3,0
			c1.7,0,2.7,0.9,2.7,2.4c0,0.7-0.3,1.4-0.9,1.8c-0.5,0.4-1.2,0.6-2,0.6h-0.3c-0.5,0-0.9-0.4-0.9-0.9v-2.9
			C18.7,15.6,19,15.2,19.5,15.2z M19.5,21.7h0.4c0.9,0,1.6,0.2,2.1,0.6c0.6,0.5,0.9,1.1,0.9,1.9c0,0.8-0.3,1.5-0.9,1.9
			c-0.5,0.4-1.2,0.7-2.1,0.7l-0.5,0c-0.5,0-0.8-0.4-0.8-0.9v-3.3C18.7,22.1,19.1,21.7,19.5,21.7z M21.6,30.4c1.9,0,3.5-0.5,4.7-1.6
			c1.2-1.1,1.9-2.5,1.9-4.2c0-1.4-0.4-2.5-1.2-3.3c-0.2-0.2-0.5-0.4-0.7-0.6c1-0.7,1.6-1.9,1.6-3.4c0-1.7-0.6-3.1-1.9-4.2
			c-1.2-1-3-1.5-5.4-1.5h-5.9c-0.5,0-0.9,0.4-0.9,0.9v17c0,0.5,0.4,0.9,0.9,0.9H21.6z"/>
	</g>
	<polygon class="st9" points="105.1,12.2 110.1,21.4 104.4,29.8 102.3,30 102.3,12.2 	"/>
	<rect x="75.7" y="14.7" class="st9" width="7.1" height="13"/>
	<rect x="16.9" y="14.7" class="st9" width="7.1" height="13"/>
	<rect x="31.4" y="15.5" class="st9" width="11.6" height="13"/>
	<g>
		<path class="st6" d="M115.2,20.8l4.3-8.2h-5.6L113,15c-0.1,0.4-0.3,1-0.5,1.7c-0.1-0.4-0.2-0.7-0.3-1c-0.1-0.3-0.2-0.5-0.3-0.7
			l-0.8-2.3h-5.6l4.3,8.2l-4.5,8.8h5.5l0.9-2.2c0.4-0.9,0.6-1.6,0.8-2.3c0.2,0.7,0.4,1.4,0.7,2.1l0.9,2.4h5.6L115.2,20.8z
			 M103.5,12.6h-5v17h5V12.6z M92.7,22.9h3.6v-4.1h-3.6v-2.2h3.9v-4.1h-8.9v17h5V22.9z M78.1,16.9h0.2c0.8,0,1.4,0.4,1.9,1.2
			c0.5,0.8,0.7,1.9,0.7,3.2c0,2.7-0.9,4.2-2.7,4.2V16.9z M77.7,29.6c2.6,0,4.6-0.7,5.9-2c1.5-1.5,2.3-3.7,2.3-6.5
			c0-2.9-0.9-5.1-2.7-6.7c-1.4-1.2-3.3-1.8-5.8-1.8H73v17H77.7z M63,23.9l0.5-2.7l0.4-2.1c0,0,0-0.1,0-0.3c0-0.2,0.1-0.5,0.1-0.9
			c0-0.2,0.1-0.4,0.1-0.6c0-0.2,0.1-0.4,0.1-0.5l0.2,1.6c0,0.3,0.1,0.6,0.1,0.8c0,0.2,0,0.4,0.1,0.5c0.2,1.1,0.2,1.8,0.3,1.9
			c0,0.2,0,0.3,0,0.3l0.3,2H63z M67.4,12.6h-6.2l-4.5,17h5.2l0.4-2.2h3.4l0.4,2.2h5.2L67.4,12.6z M51.1,24.4
			c-0.3,0.8-0.8,1.1-1.4,1.1c-0.6,0-1-0.4-1.4-1.2c-0.3-0.8-0.5-1.9-0.5-3.3c0-1.4,0.2-2.5,0.5-3.2c0.4-0.8,0.8-1.2,1.4-1.2
			c1.2,0,1.8,1.5,1.8,4.5C51.6,22.6,51.5,23.6,51.1,24.4 M55,14.9c-1.3-1.5-3-2.3-5.1-2.3c-1.8,0-3.3,0.6-4.6,1.7
			c-1.7,1.5-2.6,3.8-2.6,6.6c0,3,0.8,5.3,2.5,6.8c1.3,1.2,2.9,1.8,4.7,1.8c2.1,0,3.8-0.8,5-2.3c1.3-1.6,1.9-3.6,1.9-6.1
			C56.9,18.6,56.2,16.5,55,14.9 M33.9,16.2h0.2c1.5,0,2.2,0.6,2.2,1.9c0,0.6-0.2,1.1-0.6,1.5c-0.4,0.4-0.9,0.6-1.5,0.6h-0.3V16.2z
			 M38.4,22.5c1.9-0.8,2.9-2.2,2.9-4.3c0-1.9-0.7-3.4-2.2-4.4c-1.1-0.8-2.8-1.2-5.1-1.2h-5.2v17h5v-5.9l0-1.1
			c0.1,0.2,0.2,0.4,0.2,0.6c0.1,0.2,0.1,0.3,0.1,0.4l2.5,6h5.5L38.4,22.5z M19.5,16.2c0.1,0,0.2,0,0.3,0c0.1,0,0.2,0,0.2,0
			c1.2,0,1.8,0.5,1.8,1.5c0,0.5-0.2,0.8-0.5,1.1c-0.4,0.3-0.8,0.4-1.4,0.4h-0.3V16.2z M19.5,22.7h0.4c0.7,0,1.2,0.1,1.5,0.4
			c0.4,0.3,0.6,0.7,0.6,1.2c0,0.5-0.2,0.9-0.6,1.2C21.1,25.9,20.6,26,20,26c0,0-0.1,0-0.2,0c-0.1,0-0.2,0-0.3,0V22.7z M21.6,29.6
			c1.7,0,3-0.4,4.1-1.3c1-0.9,1.6-2.1,1.6-3.5c0-1.2-0.3-2-0.9-2.7c-0.6-0.6-1.6-1-2.9-1.2c2.3-0.2,3.5-1.3,3.5-3.4
			c0-1.4-0.5-2.6-1.6-3.5c-1.1-0.9-2.7-1.3-4.9-1.3h-5.9v17H21.6z"/>
		<path class="st12" d="M115.2,20.8l4.3-8.2h-5.6L113,15c-0.1,0.4-0.3,1-0.5,1.7c-0.1-0.4-0.2-0.7-0.3-1c-0.1-0.3-0.2-0.5-0.3-0.7
			l-0.8-2.3h-5.6l4.3,8.2l-4.5,8.8h5.5l0.9-2.2c0.4-0.9,0.6-1.6,0.8-2.3c0.2,0.7,0.4,1.4,0.7,2.1l0.9,2.4h5.6L115.2,20.8z
			 M103.5,12.6h-5v17h5V12.6z M92.7,22.9h3.6v-4.1h-3.6v-2.2h3.9v-4.1h-8.9v17h5V22.9z M78.1,16.9h0.2c0.8,0,1.4,0.4,1.9,1.2
			c0.5,0.8,0.7,1.9,0.7,3.2c0,2.7-0.9,4.2-2.7,4.2V16.9z M77.7,29.6c2.6,0,4.6-0.7,5.9-2c1.5-1.5,2.3-3.7,2.3-6.5
			c0-2.9-0.9-5.1-2.7-6.7c-1.4-1.2-3.3-1.8-5.8-1.8H73v17H77.7z M63,23.9l0.5-2.7l0.4-2.1c0,0,0-0.1,0-0.3c0-0.2,0.1-0.5,0.1-0.9
			c0-0.2,0.1-0.4,0.1-0.6c0-0.2,0.1-0.4,0.1-0.5l0.2,1.6c0,0.3,0.1,0.6,0.1,0.8c0,0.2,0,0.4,0.1,0.5c0.2,1.1,0.2,1.8,0.3,1.9
			c0,0.2,0,0.3,0,0.3l0.3,2H63z M67.4,12.6h-6.2l-4.5,17h5.2l0.4-2.2h3.4l0.4,2.2h5.2L67.4,12.6z M51.1,24.4
			c-0.3,0.8-0.8,1.1-1.4,1.1c-0.6,0-1-0.4-1.4-1.2c-0.3-0.8-0.5-1.9-0.5-3.3c0-1.4,0.2-2.5,0.5-3.2c0.4-0.8,0.8-1.2,1.4-1.2
			c1.2,0,1.8,1.5,1.8,4.5C51.6,22.6,51.5,23.6,51.1,24.4z M55,14.9c-1.3-1.5-3-2.3-5.1-2.3c-1.8,0-3.3,0.6-4.6,1.7
			c-1.7,1.5-2.6,3.8-2.6,6.6c0,3,0.8,5.3,2.5,6.8c1.3,1.2,2.9,1.8,4.7,1.8c2.1,0,3.8-0.8,5-2.3c1.3-1.6,1.9-3.6,1.9-6.1
			C56.9,18.6,56.2,16.5,55,14.9z M33.9,16.2h0.2c1.5,0,2.2,0.6,2.2,1.9c0,0.6-0.2,1.1-0.6,1.5c-0.4,0.4-0.9,0.6-1.5,0.6h-0.3V16.2z
			 M38.4,22.5c1.9-0.8,2.9-2.2,2.9-4.3c0-1.9-0.7-3.4-2.2-4.4c-1.1-0.8-2.8-1.2-5.1-1.2h-5.2v17h5v-5.9l0-1.1
			c0.1,0.2,0.2,0.4,0.2,0.6c0.1,0.2,0.1,0.3,0.1,0.4l2.5,6h5.5L38.4,22.5z M19.5,16.2c0.1,0,0.2,0,0.3,0c0.1,0,0.2,0,0.2,0
			c1.2,0,1.8,0.5,1.8,1.5c0,0.5-0.2,0.8-0.5,1.1c-0.4,0.3-0.8,0.4-1.4,0.4h-0.3V16.2z M19.5,22.7h0.4c0.7,0,1.2,0.1,1.5,0.4
			c0.4,0.3,0.6,0.7,0.6,1.2c0,0.5-0.2,0.9-0.6,1.2C21.1,25.9,20.6,26,20,26c0,0-0.1,0-0.2,0c-0.1,0-0.2,0-0.3,0V22.7z M21.6,29.6
			c1.7,0,3-0.4,4.1-1.3c1-0.9,1.6-2.1,1.6-3.5c0-1.2-0.3-2-0.9-2.7c-0.6-0.6-1.6-1-2.9-1.2c2.3-0.2,3.5-1.3,3.5-3.4
			c0-1.4-0.5-2.6-1.6-3.5c-1.1-0.9-2.7-1.3-4.9-1.3h-5.9v17H21.6z"/>
		<path class="st13" d="M115.2,20.8l4.3-8.2h-5.6L113,15c-0.1,0.4-0.3,1-0.5,1.7c-0.1-0.4-0.2-0.7-0.3-1c-0.1-0.3-0.2-0.5-0.3-0.7
			l-0.8-2.3h-5.6l4.3,8.2l-4.5,8.8h5.5l0.9-2.2c0.4-0.9,0.6-1.6,0.8-2.3c0.2,0.7,0.4,1.4,0.7,2.1l0.9,2.4h5.6L115.2,20.8z
			 M103.5,12.6h-5v17h5V12.6z M92.7,22.9h3.6v-4.1h-3.6v-2.2h3.9v-4.1h-8.9v17h5V22.9z M78.1,16.9h0.2c0.8,0,1.4,0.4,1.9,1.2
			c0.5,0.8,0.7,1.9,0.7,3.2c0,2.7-0.9,4.2-2.7,4.2V16.9z M77.7,29.6c2.6,0,4.6-0.7,5.9-2c1.5-1.5,2.3-3.7,2.3-6.5
			c0-2.9-0.9-5.1-2.7-6.7c-1.4-1.2-3.3-1.8-5.8-1.8H73v17H77.7z M63,23.9l0.5-2.7l0.4-2.1c0,0,0-0.1,0-0.3s0.1-0.5,0.1-0.9
			c0-0.2,0.1-0.4,0.1-0.6c0-0.2,0.1-0.4,0.1-0.5l0.2,1.6c0,0.3,0.1,0.6,0.1,0.8c0,0.2,0,0.4,0.1,0.5c0.2,1.1,0.2,1.7,0.3,1.9
			c0,0.2,0,0.3,0,0.3l0.3,2H63z M67.4,12.6h-6.2l-4.5,17h5.2l0.4-2.2h3.4l0.4,2.2h5.2L67.4,12.6z M51.1,24.4
			c-0.3,0.8-0.8,1.1-1.4,1.1c-0.6,0-1-0.4-1.4-1.2c-0.3-0.8-0.5-1.9-0.5-3.3c0-1.4,0.2-2.5,0.5-3.2c0.4-0.8,0.8-1.2,1.4-1.2
			c1.2,0,1.8,1.5,1.8,4.5C51.6,22.6,51.5,23.6,51.1,24.4 M55,14.9c-1.3-1.5-3-2.3-5.1-2.3c-1.8,0-3.3,0.6-4.6,1.7
			c-1.7,1.5-2.6,3.8-2.6,6.7c0,3,0.8,5.3,2.5,6.8c1.3,1.2,2.9,1.8,4.7,1.8c2.1,0,3.8-0.8,5-2.3c1.3-1.6,1.9-3.6,1.9-6.1
			C56.9,18.6,56.2,16.5,55,14.9 M33.9,16.2h0.2c1.5,0,2.2,0.6,2.2,1.9c0,0.6-0.2,1.1-0.6,1.5c-0.4,0.4-0.9,0.6-1.5,0.6h-0.3V16.2z
			 M38.4,22.5c1.9-0.8,2.9-2.2,2.9-4.2c0-1.9-0.7-3.4-2.2-4.4c-1.1-0.8-2.8-1.2-5.1-1.2h-5.2v17h5v-5.9l0-1.1
			c0.1,0.2,0.2,0.4,0.2,0.6c0.1,0.2,0.1,0.3,0.1,0.4l2.5,6h5.5L38.4,22.5z M19.5,16.2c0.1,0,0.2,0,0.3,0c0.1,0,0.2,0,0.2,0
			c1.2,0,1.8,0.5,1.8,1.5c0,0.5-0.2,0.8-0.5,1.1c-0.4,0.3-0.8,0.4-1.4,0.4h-0.3V16.2z M19.5,22.7h0.4c0.7,0,1.2,0.1,1.5,0.4
			c0.4,0.3,0.6,0.7,0.6,1.2c0,0.5-0.2,0.9-0.6,1.2C21.1,25.9,20.6,26,20,26c0,0-0.1,0-0.2,0c-0.1,0-0.2,0-0.3,0V22.7z M21.6,29.6
			c1.7,0,3-0.4,4.1-1.3c1-0.9,1.6-2.1,1.6-3.5c0-1.2-0.3-2-0.9-2.7c-0.6-0.6-1.6-1-2.9-1.2c2.3-0.2,3.5-1.3,3.5-3.4
			c0-1.4-0.5-2.6-1.6-3.5c-1.1-0.9-2.7-1.3-4.9-1.3h-5.9v17H21.6z"/>
	</g>
	<g>
		<defs>
			<path id="SVGID_6_" d="M19.8,26c-0.1,0-0.2,0-0.3,0v-3.3h0.4c0.7,0,1.2,0.1,1.5,0.4c0.4,0.3,0.6,0.7,0.6,1.2
				c0,0.5-0.2,0.9-0.6,1.2C21.1,25.9,20.6,26,20,26C19.9,26,19.9,26,19.8,26 M19.5,16.2c0.1,0,0.2,0,0.3,0c0.1,0,0.2,0,0.2,0
				c1.2,0,1.8,0.5,1.8,1.5c0,0.5-0.2,0.8-0.5,1.1c-0.4,0.3-0.8,0.4-1.4,0.4h-0.3V16.2z M14.5,12.6v17h7.1c1.7,0,3-0.4,4.1-1.3
				c1-0.9,1.6-2.1,1.6-3.5c0-1.2-0.3-2-0.9-2.7c-0.6-0.6-1.6-1-2.9-1.2c2.3-0.2,3.5-1.3,3.5-3.4c0-1.4-0.5-2.6-1.6-3.5
				c-1.1-0.9-2.7-1.3-4.9-1.3H14.5z M33.9,16.2h0.2c1.5,0,2.2,0.6,2.2,1.9c0,0.6-0.2,1.1-0.6,1.5c-0.4,0.4-0.9,0.6-1.5,0.6h-0.3
				V16.2z M28.9,12.6v17h5v-5.9l0-1.1c0.1,0.2,0.2,0.4,0.2,0.6c0.1,0.2,0.1,0.3,0.1,0.4l2.5,6h5.4l-3.7-7.1c1.9-0.8,2.9-2.2,2.9-4.3
				c0-1.9-0.7-3.4-2.2-4.4c-1.1-0.8-2.8-1.2-5.1-1.2H28.9z M48.4,24.4c-0.3-0.8-0.5-1.9-0.5-3.3c0-1.4,0.2-2.5,0.5-3.2
				c0.4-0.8,0.8-1.2,1.4-1.2c1.2,0,1.8,1.5,1.8,4.5c0,1.4-0.2,2.4-0.5,3.2c-0.3,0.8-0.8,1.1-1.4,1.1C49.2,25.5,48.7,25.1,48.4,24.4
				 M45.3,14.3c-1.7,1.5-2.6,3.8-2.6,6.6c0,3,0.8,5.3,2.5,6.8c1.3,1.2,2.9,1.8,4.7,1.8c2.1,0,3.8-0.8,5-2.3c1.3-1.6,1.9-3.6,1.9-6.1
				c0-2.6-0.6-4.7-1.9-6.2c-1.3-1.5-3-2.3-5.1-2.3C48.1,12.6,46.5,13.2,45.3,14.3 M63.5,21.2l0.4-2.1c0,0,0-0.1,0-0.3
				c0-0.2,0.1-0.5,0.1-0.9c0-0.2,0.1-0.4,0.1-0.6c0-0.2,0.1-0.4,0.1-0.5l0.2,1.6c0,0.3,0.1,0.6,0.1,0.8c0,0.2,0,0.4,0.1,0.5
				c0.2,1.1,0.2,1.8,0.3,1.9c0,0.2,0,0.3,0,0.3l0.3,2H63L63.5,21.2z M61.2,12.6l-4.5,17h5.2l0.4-2.2h3.4l0.4,2.2h5.2l-4-17H61.2z
				 M78.1,16.9h0.2c0.8,0,1.4,0.4,1.9,1.2c0.5,0.8,0.7,1.9,0.7,3.2c0,2.7-0.9,4.2-2.7,4.2V16.9z M73,12.6v17h4.7
				c2.6,0,4.6-0.7,5.9-2c1.5-1.5,2.3-3.7,2.3-6.5c0-2.9-0.9-5.1-2.7-6.7c-1.4-1.2-3.3-1.8-5.8-1.8H73z M87.6,12.6v17h5v-6.7h3.6
				v-4.1h-3.6v-2.2h3.9v-4.1H87.6z M98.5,29.6h5v-17h-5V29.6z M113.8,12.6L113,15c-0.1,0.4-0.3,1-0.5,1.7c-0.1-0.4-0.2-0.7-0.3-1
				c-0.1-0.3-0.2-0.5-0.3-0.7l-0.8-2.3h-5.6l4.3,8.2l-4.5,8.8h5.5l0.9-2.2c0.4-0.9,0.6-1.6,0.8-2.3c0.2,0.7,0.4,1.4,0.7,2.1l0.9,2.4
				h5.6l-4.6-8.8l4.3-8.2H113.8z"/>
		</defs>
		<clipPath id="SVGID_7_">
			<use xlink:href="#SVGID_6_"  style="overflow:visible;"/>
		</clipPath>
		<path class="st14" d="M114.9,20.4l4.3-8.2h-5.6l-0.8,2.3c-0.1,0.4-0.3,1-0.5,1.7c-0.1-0.4-0.2-0.7-0.3-1c-0.1-0.3-0.2-0.5-0.3-0.7
			l-0.8-2.3h-5.6l4.3,8.2l-4.5,8.8h5.5l0.9-2.2c0.4-0.9,0.6-1.6,0.8-2.3c0.2,0.7,0.4,1.4,0.7,2.1l0.9,2.4h5.6L114.9,20.4z
			 M103.2,12.3h-5v17h5V12.3z M92.3,22.6h3.6v-4.1h-3.6v-2.2h3.9v-4.1h-8.9v17h5V22.6z M77.7,16.5h0.2c0.8,0,1.4,0.4,1.9,1.2
			c0.5,0.8,0.7,1.9,0.7,3.2c0,2.7-0.9,4.2-2.7,4.2V16.5z M77.4,29.2c2.6,0,4.6-0.7,5.9-2c1.5-1.5,2.3-3.7,2.3-6.5
			c0-2.9-0.9-5.1-2.7-6.7c-1.4-1.2-3.3-1.8-5.8-1.8h-4.4v17H77.4z M62.7,23.5l0.5-2.7l0.4-2.1c0,0,0-0.1,0-0.3
			c0-0.2,0.1-0.5,0.1-0.9c0-0.2,0.1-0.4,0.1-0.6c0-0.2,0.1-0.4,0.1-0.5L64,18c0,0.3,0.1,0.6,0.1,0.8c0,0.2,0,0.4,0.1,0.5
			c0.2,1.1,0.2,1.8,0.3,1.9c0,0.2,0,0.3,0,0.3l0.3,2H62.7z M67,12.3h-6.2l-4.5,17h5.2l0.4-2.2h3.4l0.4,2.2H71L67,12.3z M50.8,24
			c-0.3,0.8-0.8,1.1-1.4,1.1c-0.6,0-1-0.4-1.4-1.2c-0.3-0.8-0.5-1.9-0.5-3.3c0-1.4,0.2-2.5,0.5-3.2c0.4-0.8,0.8-1.2,1.4-1.2
			c1.2,0,1.8,1.5,1.8,4.5C51.3,22.2,51.1,23.3,50.8,24 M54.6,14.6c-1.3-1.5-3-2.3-5.1-2.3c-1.8,0-3.3,0.6-4.6,1.7
			c-1.7,1.5-2.6,3.8-2.6,6.7c0,3,0.8,5.3,2.5,6.8c1.3,1.2,2.9,1.8,4.7,1.8c2.1,0,3.8-0.8,5-2.3c1.3-1.6,1.9-3.6,1.9-6.1
			C56.5,18.2,55.9,16.1,54.6,14.6 M33.6,15.8h0.2c1.5,0,2.2,0.6,2.2,1.9c0,0.6-0.2,1.1-0.6,1.5c-0.4,0.4-0.9,0.6-1.5,0.6h-0.3V15.8z
			 M38.1,22.2C40,21.4,41,20,41,17.9c0-1.9-0.7-3.4-2.2-4.4c-1.1-0.8-2.8-1.2-5.1-1.2h-5.2v17h5v-5.9l0-1.1c0.1,0.2,0.2,0.4,0.2,0.6
			c0.1,0.2,0.1,0.3,0.1,0.4l2.5,6h5.5L38.1,22.2z M19.2,15.8c0.1,0,0.2,0,0.3,0c0.1,0,0.2,0,0.2,0c1.2,0,1.8,0.5,1.8,1.5
			c0,0.5-0.2,0.8-0.5,1.1c-0.4,0.3-0.8,0.4-1.4,0.4h-0.3V15.8z M19.2,22.3h0.4c0.7,0,1.2,0.1,1.5,0.4c0.4,0.3,0.6,0.7,0.6,1.2
			c0,0.5-0.2,0.9-0.6,1.2c-0.4,0.3-0.9,0.5-1.5,0.5c0,0-0.1,0-0.2,0c-0.1,0-0.2,0-0.3,0V22.3z M21.2,29.2c1.7,0,3-0.4,4.1-1.3
			c1-0.9,1.6-2.1,1.6-3.5c0-1.2-0.3-2-0.9-2.7c-0.6-0.6-1.6-1-2.9-1.2c2.3-0.2,3.5-1.3,3.5-3.4c0-1.4-0.5-2.6-1.6-3.5
			c-1.1-0.9-2.7-1.3-4.9-1.3h-5.9v17H21.2z"/>
	</g>
	<g>
		<path class="st9" d="M124.1,18.9c2.2,0,4.1-1.8,4.1-4.1c0-2.2-1.8-4.1-4.1-4.1c-2.2,0-4.1,1.8-4.1,4.1
			C120,17.1,121.8,18.9,124.1,18.9"/>
		<path class="st6" d="M124.1,17.5c1.5,0,2.7-1.2,2.7-2.7s-1.2-2.7-2.7-2.7c-1.5,0-2.7,1.2-2.7,2.7S122.5,17.5,124.1,17.5"/>
		<path class="st4" d="M124.1,12.4c1.3,0,2.4,1.1,2.4,2.5c0,1.4-1.1,2.5-2.4,2.5c-1.3,0-2.4-1.1-2.4-2.5
			C121.6,13.4,122.7,12.4,124.1,12.4 M124.1,11.9c-1.7,0-3,1.3-3,2.9c0,1.6,1.3,2.9,3,2.9c1.6,0,3-1.3,3-2.9
			C127,13.2,125.7,11.9,124.1,11.9 M123.7,13.8c0-0.1,0-0.1,0-0.2c0.1,0,0.1,0,0.2,0h0.1c0.4,0,0.5,0.1,0.5,0.5
			c0,0.3-0.2,0.5-0.5,0.5h-0.1c-0.1,0-0.1,0-0.2,0c0-0.1,0-0.1,0-0.2V13.8z M123.1,16.4h0.6v-0.6c0-0.3,0-0.4-0.1-0.7l0,0
			c0.2,0.3,0.2,0.4,0.5,0.7l0.5,0.6h0.7l-0.7-0.8c-0.2-0.3-0.3-0.3-0.5-0.6l0,0c0,0,0,0,0,0c0,0,0,0,0,0l0,0c0.5,0,0.8-0.4,0.8-0.9
			c0-0.5-0.4-0.9-1-0.9h-1V16.4z"/>
	</g>
</g>
</svg>
